// Jest Snapshot v1, https://goo.gl/fbAQLP

exports[`Component - down [reference...] Auto reload Config auto reloaded with invalid command should fail command 1`] = `
"[emitted-error]
The following reference/s are not defined:
• undefined
[emitted-error]
Make sure that they are defined as a container or service in the project config
[emitted-exit]
NOT_FOUND"
`;

exports[`Component - down [reference...] Auto reload Config auto reloaded with invalid command should reload config 1`] = `
"[emitted-message]
+----------------------+--------+---------------------+---------+
| Name                 | Active | Updated             | Version |
|----------------------|--------|---------------------|---------|
| down/with-references | ✓      | <updated-1>         | TEST    |
+----------------------+--------+---------------------+---------+
[emitted-message]
+----------------------+--------+---------------------+-------------+
| Name                 | Active | Updated             | Version     |
|----------------------|--------|---------------------|-------------|
| down/with-references | ✓      | <updated-1>         | TEST-UPDATE |
+----------------------+--------+---------------------+-------------+"
`;

exports[`Component - down [reference...] Auto reload Config has invalid changes should fail command 1`] = `
"[emitted-error]
Config schema validation failed with errors:
• <chalk-underline>config/extra</chalk-underline> must NOT have additional properties
[emitted-exit]
INVALID"
`;

exports[`Component - down [reference...] Auto reload Config has invalid changes should not reload config 1`] = `
"[emitted-message]
+----------------------+--------+---------------------+---------+
| Name                 | Active | Updated             | Version |
|----------------------|--------|---------------------|---------|
| down/updated-invalid | ✓      | <updated-1>         | TEST    |
+----------------------+--------+---------------------+---------+
[emitted-message]
+----------------------+--------+---------------------+---------+
| Name                 | Active | Updated             | Version |
|----------------------|--------|---------------------|---------|
| down/updated-invalid | ✓      | <updated-1>         | TEST    |
+----------------------+--------+---------------------+---------+"
`;

exports[`Component - down [reference...] Auto reload Config has no changes and internal storage not changed should not reload config 1`] = `
"[emitted-message]
+----------------------+--------+---------------------+---------+
| Name                 | Active | Updated             | Version |
|----------------------|--------|---------------------|---------|
| down/with-references | ✓      | <updated-1>         | TEST    |
+----------------------+--------+---------------------+---------+
[emitted-message]
+----------------------+--------+---------------------+---------+
| Name                 | Active | Updated             | Version |
|----------------------|--------|---------------------|---------|
| down/with-references | ✓      | <updated-1>         | TEST    |
+----------------------+--------+---------------------+---------+"
`;

exports[`Component - down [reference...] Auto reload Config has no changes and internal storage not changed should run command successfully 1`] = `
"[executed-command]
docker-compose --file <dock-directory>/test/specs/component/__lib__/test/projects/down/with-references/docker-compose.yml down"
`;

exports[`Component - down [reference...] Auto reload Config has valid changes should reload config 1`] = `
"[emitted-message]
+--------------------+--------+---------------------+---------+
| Name               | Active | Updated             | Version |
|--------------------|--------|---------------------|---------|
| down/updated-valid | ✓      | <updated-1>         | TEST    |
+--------------------+--------+---------------------+---------+
[emitted-message]
+-----------------+--------+---------------------+---------+
| Name            | Active | Updated             | Version |
|-----------------|--------|---------------------|---------|
| down/with-valid | ✓      | <updated-2>         | TEST    |
+-----------------+--------+---------------------+---------+"
`;

exports[`Component - down [reference...] Auto reload Config has valid changes should run command successfully 1`] = `
"[executed-command]
docker-compose --file <dock-directory>/test/specs/component/__lib__/test/projects/down/updated-valid/docker-compose.yml down"
`;

exports[`Component - down [reference...] Auto reload Config was removed should fail command 1`] = `
"[emitted-error]
Configuration file <chalk-underline><dock-directory>/test/specs/component/__lib__/test/projects/down/removed/dock.config.yml</chalk-underline> not found
[emitted-exit]
NOT_FOUND"
`;

exports[`Component - down [reference...] Auto reload Config was removed should not reload config 1`] = `
"[emitted-message]
+--------------+--------+---------------------+---------+
| Name         | Active | Updated             | Version |
|--------------|--------|---------------------|---------|
| down/removed | ✓      | <updated-1>         | TEST    |
+--------------+--------+---------------------+---------+
[emitted-message]
+--------------+--------+---------------------+---------+
| Name         | Active | Updated             | Version |
|--------------|--------|---------------------|---------|
| down/removed | ✓      | <updated-1>         | TEST    |
+--------------+--------+---------------------+---------+"
`;

exports[`Component - down [reference...] Auto reload Internal storage has changed should reload config 1`] = `
"[emitted-message]
+----------------------+--------+---------------------+---------+
| Name                 | Active | Updated             | Version |
|----------------------|--------|---------------------|---------|
| down/with-references | ✓      | <updated-1>         | TEST    |
+----------------------+--------+---------------------+---------+
[emitted-message]
+----------------------+--------+---------------------+-------------+
| Name                 | Active | Updated             | Version     |
|----------------------|--------|---------------------|-------------|
| down/with-references | ✓      | <updated-1>         | TEST-UPDATE |
+----------------------+--------+---------------------+-------------+"
`;

exports[`Component - down [reference...] Auto reload Internal storage has changed should run command successfully 1`] = `
"[executed-command]
docker-compose --file <dock-directory>/test/specs/component/__lib__/test/projects/down/with-references/docker-compose.yml down"
`;

exports[`Component - down [reference...] Completion Project is not used Default options should complete if ran with all options 1`] = `
"[emitted-exit]
SYSTEM_COMPLETE"
`;

exports[`Component - down [reference...] Completion Project is not used Default options should complete if ran with command argument 1`] = `
"[emitted-message]
-h --help -v --version"
`;

exports[`Component - down [reference...] Completion Project is not used Default options should complete if ran with multiple command arguments 1`] = `
"[emitted-message]
-h -v --version"
`;

exports[`Component - down [reference...] Completion Project is not used Default options should complete if ran with multiple options 1`] = `
"[emitted-message]
--help -v --version
[emitted-message]
-v --version"
`;

exports[`Component - down [reference...] Completion Project is not used Default options should complete if ran with partial option 1`] = `
"[emitted-message]
-h --help -v --version
[emitted-message]
-h --help -v --version"
`;

exports[`Component - down [reference...] Completion Project is not used Default options should complete if ran with unknown option 1`] = `
"[emitted-message]
-h --help -v --version"
`;

exports[`Component - down [reference...] Completion Project is not used Options are provided before command arguments should complete for multiple options 1`] = `
"[emitted-exit]
SYSTEM_COMPLETE"
`;

exports[`Component - down [reference...] Completion Project is not used Options are provided before command arguments should complete for options in between multiple command arguments 1`] = `
"[emitted-exit]
SYSTEM_COMPLETE"
`;

exports[`Component - down [reference...] Completion Project is not used Options are provided before command arguments should complete for partial command argument 1`] = `
"[emitted-exit]
SYSTEM_COMPLETE"
`;

exports[`Component - down [reference...] Completion Project is not used Options are provided before command arguments should complete for single option 1`] = `
"[emitted-exit]
SYSTEM_COMPLETE"
`;

exports[`Component - down [reference...] Completion Project is not used Options are provided before command arguments should complete for succeeding arguments 1`] = `
"[emitted-exit]
SYSTEM_COMPLETE"
`;

exports[`Component - down [reference...] Completion Project is not used should complete with system completion if ran with arguments 1`] = `
"[emitted-exit]
SYSTEM_COMPLETE"
`;

exports[`Component - down [reference...] Completion Project is not used should complete with system completion if ran with no arguments 1`] = `
"[emitted-exit]
SYSTEM_COMPLETE"
`;

exports[`Component - down [reference...] Completion Project is used Project has no references Default options should complete if ran with all options 1`] = `
"[emitted-exit]
SYSTEM_COMPLETE"
`;

exports[`Component - down [reference...] Completion Project is used Project has no references Default options should complete if ran with command argument 1`] = `
"[emitted-message]
-h --help -v --version"
`;

exports[`Component - down [reference...] Completion Project is used Project has no references Default options should complete if ran with multiple command arguments 1`] = `
"[emitted-message]
-h -v --version"
`;

exports[`Component - down [reference...] Completion Project is used Project has no references Default options should complete if ran with multiple options 1`] = `
"[emitted-message]
--help -v --version
[emitted-message]
-v --version"
`;

exports[`Component - down [reference...] Completion Project is used Project has no references Default options should complete if ran with partial option 1`] = `
"[emitted-message]
-h --help -v --version
[emitted-message]
-h --help -v --version"
`;

exports[`Component - down [reference...] Completion Project is used Project has no references Default options should complete if ran with unknown option 1`] = `
"[emitted-message]
-h --help -v --version"
`;

exports[`Component - down [reference...] Completion Project is used Project has no references Options are provided before command arguments should complete for multiple options 1`] = `
"[emitted-exit]
SYSTEM_COMPLETE"
`;

exports[`Component - down [reference...] Completion Project is used Project has no references Options are provided before command arguments should complete for options in between multiple command arguments 1`] = `
"[emitted-exit]
SYSTEM_COMPLETE"
`;

exports[`Component - down [reference...] Completion Project is used Project has no references Options are provided before command arguments should complete for partial command argument 1`] = `
"[emitted-exit]
SYSTEM_COMPLETE"
`;

exports[`Component - down [reference...] Completion Project is used Project has no references Options are provided before command arguments should complete for single option 1`] = `
"[emitted-exit]
SYSTEM_COMPLETE"
`;

exports[`Component - down [reference...] Completion Project is used Project has no references Options are provided before command arguments should complete for succeeding arguments 1`] = `
"[emitted-exit]
SYSTEM_COMPLETE"
`;

exports[`Component - down [reference...] Completion Project is used Project has no references should complete with system completion if ran with arguments 1`] = `
"[emitted-exit]
SYSTEM_COMPLETE"
`;

exports[`Component - down [reference...] Completion Project is used Project has no references should complete with system completion if ran with no arguments 1`] = `
"[emitted-exit]
SYSTEM_COMPLETE"
`;

exports[`Component - down [reference...] Completion Project is used Project has references Default options should complete if ran with all options 1`] = `
"[emitted-exit]
SYSTEM_COMPLETE"
`;

exports[`Component - down [reference...] Completion Project is used Project has references Default options should complete if ran with command argument 1`] = `
"[emitted-message]
-h --help -v --version"
`;

exports[`Component - down [reference...] Completion Project is used Project has references Default options should complete if ran with multiple command arguments 1`] = `
"[emitted-message]
-h -v --version"
`;

exports[`Component - down [reference...] Completion Project is used Project has references Default options should complete if ran with multiple options 1`] = `
"[emitted-message]
--help -v --version
[emitted-message]
-v --version"
`;

exports[`Component - down [reference...] Completion Project is used Project has references Default options should complete if ran with partial option 1`] = `
"[emitted-message]
-h --help -v --version
[emitted-message]
-h --help -v --version"
`;

exports[`Component - down [reference...] Completion Project is used Project has references Default options should complete if ran with unknown option 1`] = `
"[emitted-message]
-h --help -v --version"
`;

exports[`Component - down [reference...] Completion Project is used Project has references Options are provided before command arguments should complete for multiple options 1`] = `
"[emitted-message]
container-no-service-1 container-with-service-1 container-with-service-2 container-same-with-service service-1 service-2"
`;

exports[`Component - down [reference...] Completion Project is used Project has references Options are provided before command arguments should complete for options in between multiple command arguments 1`] = `
"[emitted-message]
container-no-service-1 container-with-service-1 container-with-service-2 container-same-with-service"
`;

exports[`Component - down [reference...] Completion Project is used Project has references Options are provided before command arguments should complete for partial command argument 1`] = `
"[emitted-message]
container-no-service-1 container-with-service-1 container-with-service-2 container-same-with-service service-1 service-2"
`;

exports[`Component - down [reference...] Completion Project is used Project has references Options are provided before command arguments should complete for single option 1`] = `
"[emitted-message]
container-no-service-1 container-with-service-1 container-with-service-2 container-same-with-service service-1 service-2"
`;

exports[`Component - down [reference...] Completion Project is used Project has references Options are provided before command arguments should complete for succeeding arguments 1`] = `
"[emitted-message]
container-no-service-1 container-with-service-1 container-with-service-2 container-same-with-service service-2"
`;

exports[`Component - down [reference...] Completion Project is used Project has references should complete if ran with no arguments 1`] = `
"[emitted-message]
container-no-service-1 container-with-service-1 container-with-service-2 container-same-with-service service-1 service-2"
`;

exports[`Component - down [reference...] Completion Project is used Project has references should complete if ran with partial reference 1`] = `
"[emitted-message]
container-no-service-1 container-with-service-1 container-with-service-2 container-same-with-service service-1 service-2"
`;

exports[`Component - down [reference...] Completion Project is used Project has references should complete if ran with undefined reference 1`] = `
"[emitted-message]
container-no-service-1 container-with-service-1 container-with-service-2 container-same-with-service service-1 service-2"
`;

exports[`Component - down [reference...] Completion Project is used Project has references should complete with system completion if ran with exhausted references 1`] = `
"[emitted-exit]
SYSTEM_COMPLETE"
`;

exports[`Component - down [reference...] Completion Project is used Project has references should filtered complete if ran with complete reference 1`] = `
"[emitted-message]
container-no-service-1 container-with-service-2 container-same-with-service service-1 service-2"
`;

exports[`Component - down [reference...] Completion Project is used Project has references should filtered complete if ran with multiple references 1`] = `
"[emitted-message]
container-no-service-1 container-with-service-2 container-same-with-service service-2"
`;

exports[`Component - down [reference...] Engine docker-compose Command Project is not used should emit error if ran with arguments 1`] = `
"[emitted-error]
No project is currently in use
[emitted-error]
Run dock use [project] to use project
[emitted-exit]
INCORRECT_USAGE"
`;

exports[`Component - down [reference...] Engine docker-compose Command Project is not used should emit error if ran with no arguments 1`] = `
"[emitted-error]
No project is currently in use
[emitted-error]
Run dock use [project] to use project
[emitted-exit]
INCORRECT_USAGE"
`;

exports[`Component - down [reference...] Engine docker-compose Command Project is used Project has no reference It should emit error if container or service reference is provided for multiple arguments 1`] = `
"[emitted-error]
The following reference/s are not defined:
• service-1
• service-2
• container-no-service-1
[emitted-error]
Make sure that they are defined as a container or service in the project config
[emitted-exit]
NOT_FOUND"
`;

exports[`Component - down [reference...] Engine docker-compose Command Project is used Project has no reference It should emit error if container or service reference is provided for one argument 1`] = `
"[emitted-error]
The following reference/s are not defined:
• service-1
[emitted-error]
Make sure that they are defined as a container or service in the project config
[emitted-exit]
NOT_FOUND"
`;

exports[`Component - down [reference...] Engine docker-compose Command Project is used Project has no reference should bring down all containers if ran with no references 1`] = `
"[executed-command]
docker-compose --file <dock-directory>/test/specs/component/__lib__/test/projects/down/engine/docker-compose/no-reference/docker-compose.yml down"
`;

exports[`Component - down [reference...] Engine docker-compose Command Project is used Project has references It should emit error if container or service reference is not defined in all arguments 1`] = `
"[emitted-error]
The following reference/s are not defined:
• undefined-1
• undefined-2
• undefined-3
[emitted-error]
Make sure that they are defined as a container or service in the project config
[emitted-exit]
NOT_FOUND"
`;

exports[`Component - down [reference...] Engine docker-compose Command Project is used Project has references It should emit error if container or service reference is not defined in many of multiple arguments 1`] = `
"[emitted-error]
The following reference/s are not defined:
• undefined-1
• undefined-2
[emitted-error]
Make sure that they are defined as a container or service in the project config
[emitted-exit]
NOT_FOUND"
`;

exports[`Component - down [reference...] Engine docker-compose Command Project is used Project has references It should emit error if container or service reference is not defined in one of multiple arguments 1`] = `
"[emitted-error]
The following reference/s are not defined:
• undefined-1
[emitted-error]
Make sure that they are defined as a container or service in the project config
[emitted-exit]
NOT_FOUND"
`;

exports[`Component - down [reference...] Engine docker-compose Command Project is used Project has references It should emit error if container or service reference is not defined in only argument 1`] = `
"[emitted-error]
The following reference/s are not defined:
• undefined-1
[emitted-error]
Make sure that they are defined as a container or service in the project config
[emitted-exit]
NOT_FOUND"
`;

exports[`Component - down [reference...] Engine docker-compose Command Project is used Project has references should bring down all containers if ran with no references 1`] = `
"[executed-command]
docker-compose --file <dock-directory>/test/specs/component/__lib__/test/projects/down/engine/docker-compose/with-references/docker-compose.yml down"
`;

exports[`Component - down [reference...] Engine docker-compose Command Project is used Project has references should bring down container if ran with a container reference 1`] = `
"[executed-command]
docker-compose --file <dock-directory>/test/specs/component/__lib__/test/projects/down/engine/docker-compose/with-references/docker-compose.yml stop container-no-service-1
[executed-command]
docker-compose --file <dock-directory>/test/specs/component/__lib__/test/projects/down/engine/docker-compose/with-references/docker-compose.yml rm --force --stop container-no-service-1"
`;

exports[`Component - down [reference...] Engine docker-compose Command Project is used Project has references should bring down containers if ran with all type of references 1`] = `
"[executed-command]
docker-compose --file <dock-directory>/test/specs/component/__lib__/test/projects/down/engine/docker-compose/with-references/docker-compose.yml stop container-with-service-1 container-with-service-2
[executed-command]
docker-compose --file <dock-directory>/test/specs/component/__lib__/test/projects/down/engine/docker-compose/with-references/docker-compose.yml rm --force --stop container-with-service-1 container-with-service-2"
`;

exports[`Component - down [reference...] Engine docker-compose Command Project is used Project has references should bring down containers if ran with intersecting container and service container references 1`] = `
"[executed-command]
docker-compose --file <dock-directory>/test/specs/component/__lib__/test/projects/down/engine/docker-compose/with-references/docker-compose.yml stop container-same-with-service
[executed-command]
docker-compose --file <dock-directory>/test/specs/component/__lib__/test/projects/down/engine/docker-compose/with-references/docker-compose.yml rm --force --stop container-same-with-service"
`;

exports[`Component - down [reference...] Engine docker-compose Command Project is used Project has references should bring down containers if ran with multiple container references 1`] = `
"[executed-command]
docker-compose --file <dock-directory>/test/specs/component/__lib__/test/projects/down/engine/docker-compose/with-references/docker-compose.yml stop container-no-service-1 container-with-service-1
[executed-command]
docker-compose --file <dock-directory>/test/specs/component/__lib__/test/projects/down/engine/docker-compose/with-references/docker-compose.yml rm --force --stop container-no-service-1 container-with-service-1"
`;

exports[`Component - down [reference...] Engine docker-compose Command Project is used Project has references should bring down containers if ran with non unique references 1`] = `
"[executed-command]
docker-compose --file <dock-directory>/test/specs/component/__lib__/test/projects/down/engine/docker-compose/with-references/docker-compose.yml stop container-with-service-1 container-with-service-2
[executed-command]
docker-compose --file <dock-directory>/test/specs/component/__lib__/test/projects/down/engine/docker-compose/with-references/docker-compose.yml rm --force --stop container-with-service-1 container-with-service-2"
`;

exports[`Component - down [reference...] Engine docker-compose Command Project is used Project has references should bring down service container if ran with a service reference 1`] = `
"[executed-command]
docker-compose --file <dock-directory>/test/specs/component/__lib__/test/projects/down/engine/docker-compose/with-references/docker-compose.yml stop container-with-service-1
[executed-command]
docker-compose --file <dock-directory>/test/specs/component/__lib__/test/projects/down/engine/docker-compose/with-references/docker-compose.yml rm --force --stop container-with-service-1"
`;

exports[`Component - down [reference...] Engine docker-compose Command Project is used Project has references should bring down service containers if ran with multiple service references 1`] = `
"[executed-command]
docker-compose --file <dock-directory>/test/specs/component/__lib__/test/projects/down/engine/docker-compose/with-references/docker-compose.yml stop container-with-service-1 container-with-service-2
[executed-command]
docker-compose --file <dock-directory>/test/specs/component/__lib__/test/projects/down/engine/docker-compose/with-references/docker-compose.yml rm --force --stop container-with-service-1 container-with-service-2"
`;

exports[`Component - down [reference...] Help should show help text 1`] = `
"Usage: dock down [options] [reference...]

Stop and remove container/s or service container/s

Arguments:
  reference      (Optional) Container or service reference/s. Defaults to all
                 containers

Options:
  -v, --version  Output the package version
  -h, --help     Display help for command"
`;
